{
    "parent": "block/stairs",
    "textures": {
        "bottom": "magistry:blocks/dark_iron_block",
        "top": "magistry:blocks/dark_iron_block",
        "side": "magistry:blocks/dark_iron_block"
    }
}
