{
    "parent": "block/inner_stairs",
    "textures": {
        "bottom": "magistry:blocks/dark_bricks",
        "top": "magistry:blocks/dark_bricks",
        "side": "magistry:blocks/dark_bricks"
    }
}
