﻿{
	"parent": "block/block",
	"textures": {
		"particle": "magistry:blocks/coil_texturemap"
	},
	"elements": [
		{
			"from": [0, 14, 0],
			"to": [16, 16, 16],
			"faces": {
				"north": {"uv": [0, 14, 8, 15], "texture": "#particle"},
				"east": {"uv": [0, 14, 8, 15], "texture": "#particle"},
				"south": {"uv": [0, 14, 8, 15], "texture": "#particle"},
				"west": {"uv": [0, 14, 8, 15], "texture": "#particle"},
				"up": {"uv": [8, 0, 16, 8], "texture": "#particle"},
				"down": {"uv": [8, 0, 16, 8], "texture": "#particle"}
			}
		},
		{
			"from": [3, 0.25, 3],
			"to": [13, 14.25, 13],
			"faces": {
				"north": {"uv": [11, 8, 16, 16], "texture": "#particle"},
				"east": {"uv": [11, 8, 16, 16], "texture": "#particle"},
				"south": {"uv": [11, 8, 16, 16], "texture": "#particle"},
				"west": {"uv": [11, 8, 16, 16], "texture": "#particle"},
				"up": {"uv": [8, 0, 16, 8], "texture": "#particle"},
				"down": {"uv": [0, 0, 8, 8], "texture": "#particle"}
			}
		},
		{
			"from": [2, 0, 2],
			"to": [14, 1, 14],
			"faces": {
				"north": {"uv": [0, 8, 6, 8.5], "texture": "#particle"},
				"east": {"uv": [0, 9.5, 6, 10], "texture": "#particle"},
				"south": {"uv": [0, 8.5, 6, 9], "texture": "#particle"},
				"west": {"uv": [0, 9, 6, 9.5], "texture": "#particle"},
				"up": {"uv": [6.5, 8, 10.5, 12], "texture": "#particle"},
				"down": {"uv": [6.5, 8, 10.5, 12], "texture": "#particle"}
			}
		},
		{
			"from": [2, 2, 2],
			"to": [14, 3, 14],
			"faces": {
				"north": {"uv": [0, 8, 6, 8.5], "texture": "#particle"},
				"east": {"uv": [0, 9.5, 6, 10], "texture": "#particle"},
				"south": {"uv": [0, 8.5, 6, 9], "texture": "#particle"},
				"west": {"uv": [0, 9, 6, 9.5], "texture": "#particle"},
				"up": {"uv": [6.5, 8, 10.5, 12], "texture": "#particle"},
				"down": {"uv": [6.5, 8, 10.5, 12], "texture": "#particle"}
			}
		},
		{
			"from": [2, 4, 2],
			"to": [14, 5, 14],
			"faces": {
				"north": {"uv": [0, 8, 6, 8.5], "texture": "#particle"},
				"east": {"uv": [0, 9.5, 6, 10], "texture": "#particle"},
				"south": {"uv": [0, 8.5, 6, 9], "texture": "#particle"},
				"west": {"uv": [0, 9, 6, 9.5], "texture": "#particle"},
				"up": {"uv": [6.5, 8, 10.5, 12], "texture": "#particle"},
				"down": {"uv": [6.5, 8, 10.5, 12], "texture": "#particle"}
			}
		},
		{
			"from": [2, 6, 2],
			"to": [14, 7, 14],
			"faces": {
				"north": {"uv": [0, 8, 6, 8.5], "texture": "#particle"},
				"east": {"uv": [0, 9.5, 6, 10], "texture": "#particle"},
				"south": {"uv": [0, 8.5, 6, 9], "texture": "#particle"},
				"west": {"uv": [0, 9, 6, 9.5], "texture": "#particle"},
				"up": {"uv": [6.5, 8, 10.5, 12], "texture": "#particle"},
				"down": {"uv": [6.5, 8, 10.5, 12], "texture": "#particle"}
			}
		},
		{
			"from": [2, 8, 2],
			"to": [14, 9, 14],
			"faces": {
				"north": {"uv": [0, 8, 6, 8.5], "texture": "#particle"},
				"east": {"uv": [0, 9.5, 6, 10], "texture": "#particle"},
				"south": {"uv": [0, 8.5, 6, 9], "texture": "#particle"},
				"west": {"uv": [0, 9, 6, 9.5], "texture": "#particle"},
				"up": {"uv": [6.5, 8, 10.5, 12], "texture": "#particle"},
				"down": {"uv": [6.5, 8, 10.5, 12], "texture": "#particle"}
			}
		},
		{
			"from": [2, 10, 2],
			"to": [14, 11, 14],
			"faces": {
				"north": {"uv": [0, 8, 6, 8.5], "texture": "#particle"},
				"east": {"uv": [0, 9.5, 6, 10], "texture": "#particle"},
				"south": {"uv": [0, 8.5, 6, 9], "texture": "#particle"},
				"west": {"uv": [0, 9, 6, 9.5], "texture": "#particle"},
				"up": {"uv": [6.5, 8, 10.5, 12], "texture": "#particle"},
				"down": {"uv": [6.5, 8, 10.5, 12], "texture": "#particle"}
			}
		},
		{
			"from": [2, 12, 2],
			"to": [14, 13, 14],
			"faces": {
				"north": {"uv": [0, 8, 6, 8.5], "texture": "#particle"},
				"east": {"uv": [0, 9.5, 6, 10], "texture": "#particle"},
				"south": {"uv": [0, 8.5, 6, 9], "texture": "#particle"},
				"west": {"uv": [0, 9, 6, 9.5], "texture": "#particle"},
				"up": {"uv": [6.5, 8, 10.5, 12], "texture": "#particle"},
				"down": {"uv": [6.5, 8, 10.5, 12], "texture": "#particle"}
			}
		}
	]
}