{
	"variants": {
		"down=false,up=false": { "model": "magistry:induction_coil_00" },
		"down=false,up=true": { "model": "magistry:induction_coil_01" },
		"down=true,up=false": { "model": "magistry:induction_coil_10" },
		"down=true,up=true": { "model": "magistry:induction_coil_11" }
	}
}